
<svg xmlns="http://www.w3.org/2000/svg" version="1.1" xmlns:xlink="http://www.w3.org/1999/xlink" preserveAspectRatio="none" x="0px" y="0px" width="56px" height="56px" viewBox="0 0 56 56">
<defs>
<g id="_______2_0_Layer0_0_FILL">
<path fill="#0072B8" stroke="none" d="
M 19.4 -19.45
Q 11.35 -27.5 0 -27.5 -11.4 -27.5 -19.5 -19.45 -27.5 -11.4 -27.5 0 -27.5 11.4 -19.5 19.4 -11.4 27.5 0 27.5 11.35 27.5 19.4 19.4 27.5 11.4 27.5 0 27.5 -11.4 19.4 -19.45 Z"/>
</g>

<g id="_______1_0_Layer1_0_FILL">
<path fill="#FFFFFF" stroke="none" d="
M 16.1 -9.9
Q 16.1 -12.9 13.1 -12.9
L -13.15 -12.9
Q -16.15 -12.9 -16.15 -9.9
L -16.15 10.6
Q -16.15 13.6 -13.15 13.6
L 13.1 13.6
Q 16.1 13.6 16.1 10.6
L 16.1 -9.9 Z"/>
</g>

<path id="_______1_0_Layer1_0_1_STROKES" stroke="#0072B8" stroke-width="1" stroke-linejoin="round" stroke-linecap="round" fill="none" d="
M -13.15 -12.9
L 13.1 -12.9
Q 16.1 -12.9 16.1 -9.9
L 16.1 10.6
Q 16.1 13.6 13.1 13.6
L -13.15 13.6
Q -16.15 13.6 -16.15 10.6
L -16.15 -9.9
Q -16.15 -12.9 -13.15 -12.9 Z"/>

<path id="_______1_0_Layer0_0_1_STROKES" stroke="#0072B8" stroke-width="1" stroke-linejoin="round" stroke-linecap="round" fill="none" d="
M 10.4 -13.9
L 10.4 -7.3 17.35 -7.3
M 3.45 -13.9
L 3.45 -7.3 10.4 -7.3 10.4 15.1
M -10.6 -13.9
L -10.6 -7.3 -3.6 -7.3 -3.6 -13.9
M -17.5 -7.3
L -10.6 -7.3 -10.6 15.1
M -3.6 -7.3
L 3.45 -7.3 3.45 15.1
M -3.6 -7.3
L -3.6 15.1"/>
</defs>

<g transform="matrix( 1, 0, 0, 1, 28,28) ">
<g transform="matrix( 1, 0, 0, 1, 0,0) ">
<g transform="matrix( 1, 0, 0, 1, 0,0) ">
<use xlink:href="#_______2_0_Layer0_0_FILL"/>
</g>
</g>

<g transform="matrix( 1, 0, 0, 1, 0,0) ">
<use xlink:href="#_______1_0_Layer1_0_FILL"/>

<use xlink:href="#_______1_0_Layer1_0_1_STROKES"/>
</g>

<g transform="matrix( 1, 0, 0, 1, 0,0) ">
<use xlink:href="#_______1_0_Layer0_0_1_STROKES"/>
</g>
</g>
</svg>
