
<svg xmlns="http://www.w3.org/2000/svg" version="1.1" xmlns:xlink="http://www.w3.org/1999/xlink" preserveAspectRatio="none" x="0px" y="0px" width="56px" height="56px" viewBox="0 0 56 56">
<defs>
<g id="_______2_0_Layer0_0_FILL">
<path fill="#0072B8" stroke="none" d="
M 19.4 -19.45
Q 11.35 -27.5 0 -27.5 -11.4 -27.5 -19.5 -19.45 -27.5 -11.4 -27.5 0 -27.5 11.4 -19.5 19.4 -11.4 27.5 0 27.5 11.35 27.5 19.4 19.4 27.5 11.4 27.5 0 27.5 -11.4 19.4 -19.45 Z"/>
</g>

<path id="_______3_0_Layer0_0_1_STROKES" stroke="#FFFFFF" stroke-width="4" stroke-linejoin="round" stroke-linecap="round" fill="none" d="
M -13.2 -12.2
L 8.25 -12.2
Q 10.55 -12.15 12.15 -10.45 13.85 -8.65 13.85 -6.1 13.85 -3.55 12.15 -1.8 11.15 -0.75 9.95 -0.3 9.15 0 8.25 0
L -8.25 0
Q -10.55 0.05 -12.2 1.75 -13.85 3.55 -13.85 6.1 -13.85 8.65 -12.2 10.4 -10.55 12.15 -8.25 12.2
L 13 12.2"/>
</defs>

<g transform="matrix( 1, 0, 0, 1, 28,28) ">
<g transform="matrix( 1, 0, 0, 1, 0,0) ">
<g transform="matrix( 1, 0, 0, 1, 0,0) ">
<use xlink:href="#_______2_0_Layer0_0_FILL"/>
</g>
</g>

<g transform="matrix( 1, 0, 0, 1, 0,0) ">
<use xlink:href="#_______3_0_Layer0_0_1_STROKES"/>
</g>
</g>
</svg>
